{
  "schema": {
    "id": "Идентификатор",
    "price": "Цена",
    "quantity": "Количество",
    "name": "Название"
  },
  "data": [{
    "id": 1,
    "name": "2-Android3",
    "price": 30000,
    "quantity": 300
  }, {
    "id": 2,
    "name": "2-Android4",
    "price": 40000,
    "quantity": 400
  }, {
    "id": 3,
    "name": "2-Android5",
    "price": 50000,
    "quantity": 500
  }, {
    "id": 4,
    "name": "2-Android6",
    "price": 60000,
    "quantity": 600
  }, {
    "id": 5,
    "name": "2-Android6",
    "price": 60000,
    "quantity": 600
  }, {
    "id": 6,
    "name": "2-Android6",
    "price": 60000,
    "quantity": 600
  }, {
    "id": 7,
    "name": "2-Android6",
    "price": 60000,
    "quantity": 600
  }, {
    "id": 8,
    "name": "2-Android6",
    "price": 60000,
    "quantity": 600
  }, {
    "id": 9,
    "name": "2-Android6",
    "price": 60000,
    "quantity": 600
  }, {
    "id": 10,
    "name": "2-Android6",
    "price": 60000,
    "quantity": 600
  }, {
    "id": 11,
    "name": "2-Android6",
    "price": 60000,
    "quantity": 600
  }, {
    "id": 12,
    "name": "2-Android6",
    "price": 60000,
    "quantity": 600
  }, {
    "id": 13,
    "name": "2-Android6",
    "price": 60000,
    "quantity": 600
  }, {
    "id": 14,
    "name": "2-Android6",
    "price": 60000,
    "quantity": 600
  }, {
    "id": 15,
    "name": "2-Android6",
    "price": 60000,
    "quantity": 600
  }, {
    "id": 16,
    "name": "2-Android6",
    "price": 60000,
    "quantity": 600
  }, {
    "id": 17,
    "name": "2-Android6",
    "price": 60000,
    "quantity": 600
  }, {
    "id": 18,
    "name": "2-Android6",
    "price": 60000,
    "quantity": 600
  }, {
    "id": 19,
    "name": "2-Android6",
    "price": 60000,
    "quantity": 600
  }, {
    "id": 20,
    "name": "2-Android6",
    "price": 60000,
    "quantity": 600
  }, {
    "id": 21,
    "name": "2-Android6",
    "price": 60000,
    "quantity": 600
  }, {
    "id": 22,
    "name": "2-Android6",
    "price": 60000,
    "quantity": 600
  }, {
    "id": 23,
    "name": "2-Android6",
    "price": 60000,
    "quantity": 600
  }, {
    "id": 24,
    "name": "2-Android6",
    "price": 60000,
    "quantity": 600
  }, {
    "id": 25,
    "name": "2-Android6",
    "price": 60000,
    "quantity": 600
  }, {
    "id": 26,
    "name": "2-Android6",
    "price": 60000,
    "quantity": 600
  }, {
    "id": 27,
    "name": "2-Android6",
    "price": 60000,
    "quantity": 600
  }, {
    "id": 28,
    "name": "2-Android6",
    "price": 60000,
    "quantity": 600
  }, {
    "id": 29,
    "name": "2-Android6",
    "price": 60000,
    "quantity": 600
  }, {
    "id": 30,
    "name": "2-Android6",
    "price": 60000,
    "quantity": 600
  }, {
    "id": 31,
    "name": "2-Android6",
    "price": 60000,
    "quantity": 600
  }, {
    "id": 32,
    "name": "2-Android6",
    "price": 60000,
    "quantity": 600
  }, {
    "id": 33,
    "name": "2-Android6",
    "price": 60000,
    "quantity": 600
  }, {
    "id": 34,
    "name": "2-Android6",
    "price": 60000,
    "quantity": 600
  }]
}